sync_mux41/sync_mux41.vcd
$date
     Jun 07, 2024       09:21:38
$end

$version
 SystemC 3.0.0-Accellera --- Jun  5 2024 15:51:10
$end

$timescale
     1 ps
$end

$scope module SystemC $end
$var wire    1  aaaaa  clock       $end
$var wire    1  aaaab  reset       $end
$var wire    4  aaaac  input [3:0]  $end
$var wire    2  aaaad  select [1:0]  $end
$var wire    1  aaaae  output       $end
$upscope $end
$enddefinitions  $end

$comment
All initial values are dumped below at time 0 sec = 0 timescale units.
$end

$dumpvars
1aaaaa
0aaaab
b0 aaaac
b0 aaaad
0aaaae
$end

#1000
0aaaaa

#2000
1aaaaa

#3000
0aaaaa

#4000
1aaaaa

#5000
0aaaaa

#6000
1aaaaa

#7000
0aaaaa
1aaaab

#8000
1aaaaa

#9000
0aaaaa

#10000
1aaaaa
b1 aaaad

#11000
0aaaaa

#12000
1aaaaa

#13000
0aaaaa
b10 aaaad

#14000
1aaaaa

#15000
0aaaaa

#16000
1aaaaa
b11 aaaad

#17000
0aaaaa

#18000
1aaaaa

#19000
0aaaaa
b1 aaaac
b0 aaaad

#20000
1aaaaa
1aaaae

#21000
0aaaaa

#22000
1aaaaa
b1 aaaad
0aaaae

#23000
0aaaaa

#24000
1aaaaa

#25000
0aaaaa
b10 aaaad

#26000
1aaaaa

#27000
0aaaaa

#28000
1aaaaa
b11 aaaad

#29000
0aaaaa

#30000
1aaaaa

#31000
0aaaaa
b10 aaaac
b0 aaaad

#32000
1aaaaa

#33000
0aaaaa

#34000
1aaaaa
b1 aaaad
1aaaae

#35000
0aaaaa

#36000
1aaaaa

#37000
0aaaaa
b10 aaaad

#38000
1aaaaa
0aaaae

#39000
0aaaaa

#40000
1aaaaa
b11 aaaad

#41000
0aaaaa

#42000
1aaaaa

#43000
0aaaaa
b11 aaaac
b0 aaaad

#44000
1aaaaa
1aaaae

#45000
0aaaaa

#46000
1aaaaa
b1 aaaad

#47000
0aaaaa

#48000
1aaaaa

#49000
0aaaaa
b10 aaaad

#50000
1aaaaa
0aaaae

#51000
0aaaaa

#52000
1aaaaa
b11 aaaad

#53000
0aaaaa

#54000
1aaaaa

#55000
0aaaaa
b100 aaaac
b0 aaaad

#56000
1aaaaa

#57000
0aaaaa

#58000
1aaaaa
b1 aaaad

#59000
0aaaaa

#60000
1aaaaa

#61000
0aaaaa
b10 aaaad

#62000
1aaaaa
1aaaae

#63000
0aaaaa

#64000
1aaaaa
b11 aaaad
0aaaae

#65000
0aaaaa

#66000
1aaaaa

#67000
0aaaaa
b101 aaaac
b0 aaaad

#68000
1aaaaa
1aaaae

#69000
0aaaaa

#70000
1aaaaa
b1 aaaad
0aaaae

#71000
0aaaaa

#72000
1aaaaa

#73000
0aaaaa
b10 aaaad

#74000
1aaaaa
1aaaae

#75000
0aaaaa

#76000
1aaaaa
b11 aaaad
0aaaae

#77000
0aaaaa

#78000
1aaaaa

#79000
0aaaaa
b110 aaaac
b0 aaaad

#80000
1aaaaa

#81000
0aaaaa

#82000
1aaaaa
b1 aaaad
1aaaae

#83000
0aaaaa

#84000
1aaaaa

#85000
0aaaaa
b10 aaaad

#86000
1aaaaa

#87000
0aaaaa

#88000
1aaaaa
b11 aaaad
0aaaae

#89000
0aaaaa

#90000
1aaaaa

#91000
0aaaaa
b111 aaaac
b0 aaaad

#92000
1aaaaa
1aaaae

#93000
0aaaaa

#94000
1aaaaa
b1 aaaad

#95000
0aaaaa

#96000
1aaaaa

#97000
0aaaaa
b10 aaaad

